1 10 20
100 200 125
201 210 89
900 1000 174
1 210 125
1 2 2
1 1 1
210 1 125
1 99999 351
100000 199999 383
200000 299999 443
300000 399999 441
400000 499999 449
500000 599999 470
600000 699999 509
700000 799999 504
800000 899999 525
900000 999999 507
1 9999 262
10000 19999 279
20000 29999 308
30000 39999 324
40000 49999 314
50000 59999 340
60000 69999 335
70000 79999 351
80000 89999 333
90000 99999 333
5000 250000 443
6782 8772 257
198861 205383 342
62005 319279 443
947927 959129 414
8568 993214 525
740322 921092 525
389166 966921 525
403637 867674 525
994822 998167 440
626415 991162 525
105359 611470 470
151202 524157 470
788694 919796 525
516487 674997 509
608141 956851 525
31012 158353 383
235183 688257 509
766534 810804 468
649391 721352 504
816918 876892 525
841070 917285 476
175942 587717 470
322234 919287 525
510741 850037 525
418601 799433 509
691877 941549 525
58604 698547 509
190028 514680 470
111324 864581 525
575736 962937 525
116056 902238 525
115373 880187 525
321019 603343 470
740947 856266 525
72710 919796 525
593337 638354 509
931994 989826 507
542628 687890 509
595408 694873 509
485955 803795 509
384374 831396 509
594585 884491 525
928619 947005 507
322916 917355 525
831840 931060 525
972184 984502 427
367915 911534 525
462638 744237 509
267175 489130 449
636361 815011 504
578560 812999 509
477206 572095 470
803818 941617 525
407801 811555 509
609749 761456 509
159094 404746 443
467078 671849 509
154477 979071 525
207906 848013 525
5925 127510 354
501794 732603 509
242824 475036 449
558030 862527 525
91939 583178 470
150175 166132 383
13746 601738 470
462664 907656 525
323465 438915 449
51320 227627 386
68300 955625 525
507077 901956 525
808326 962653 525
213403 306258 443
313092 456053 449
233431 263459 407
442356 933226 525
251545 435665 449
416915 713626 509
866799 881182 432
993990 999355 440
736694 920659 525
611207 615465 447
703724 933004 525
209464 569191 470
213746 695326 509
639994 885257 525
418213 930497 525
503718 656897 509
788209 875217 525
289610 666324 509
730555 855250 525
382804 791149 509
359642 693542 509
765284 915910 525
364351 526730 470
510131 867363 525
126099 438448 449
167678 275332 443
982999 990454 427
892671 941522 507
26858 901752 525
305812 700907 509
790775 824780 468
359405 773683 509
856720 910250 476
950685 981417 458
541510 747745 509
517858 902654 525
432753 935830 525
529184 901760 525
375832 384338 423
919093 924790 445
861110 908434 445
495306 690990 509
302265 763224 509
661810 903185 525
21744 503291 449
209993 705311 509
152433 454418 449
742591 959252 525
777457 837629 468
735941 737315 318
983668 991785 427
401352 998029 525
327466 569642 470
109156 193125 383
701240 731307 504
592211 651860 509
35966 120394 354
905320 971051 507
240876 690876 509
884013 975426 507
912387 947384 507
993511 996750 365
788526 839650 525
833294 953378 525
152822 484457 449
974208 990692 427
95477 513176 470
774052 872652 525
949513 989771 458
963775 995030 458
420057 522223 470
681438 926908 525
102009 749658 509
147736 389362 443
589547 818236 509
244542 497162 449
790323 823885 468
898002 963996 507
114155 783004 509
998730 999138 396
51174 418441 449
619970 753579 509
608114 652682 509
58566 84959 351
698934 775946 504
798432 940488 525
6254 996377 525
485406 629231 509
909109 972499 507
126561 264761 443
8749 393555 443
515707 813992 509
933376 989538 507
194653 712709 509
141248 248768 443
608205 889697 525
86306 103131 341
671124 710185 504
447708 662444 509
809663 964728 525
81259 363827 443
13594 264447 443
841588 962697 507
506082 552745 470
308467 401308 441
224144 479750 449
248219 664158 509
251445 428565 449
289253 930089 525
593682 998999 525
561349 675262 509
287651 979429 525
47970 426949 449
971095 991812 427
244280 855231 525
627245 951583 525
359064 914268 525
79058 360536 443
145985 563990 470
130808 711566 509
147524 497083 449
153253 190720 383
29657 709045 509
680608 820598 504
423864 491044 444
604501 763655 509
96626 135296 354
100969 560276 470
927994 931819 383
687138 876121 525
304873 900389 525
184506 209990 373
199351 464889 449
838386 900136 445
791741 805161 468
798659 881298 525
344350 682572 509
526130 575561 452
348112 898500 525
632331 857411 525
611957 636816 509
29863 210495 383
882485 961355 507
391271 520649 470
382897 835203 509
194376 510166 449
734619 751470 424
205132 402528 443
859118 867976 388
