1 10 20
100 200 125
201 210 89
900 1000 174
92985 722945 509
5627 812884 509
66566 293490 443
80987 438907 449
27263 295056 443
43162 107055 354
31075 726486 509
7082 791398 509
3043 272943 443
28164 91740 351
32662 951419 525
56676 443462 449
23609 931715 525
14939 433903 449
65494 981405 525
65169 236644 443
81627 666538 509
43311 110832 354
38145 392883 443
25880 421848 449
8622 520691 470
38271 14711 324
40023 127547 354
34349 761487 509
59301 904531 525
76430 636273 509
42468 21310 324
32690 845747 525
48987 839732 525
47553 230980 443
62429 286031 443
23540 245162 443
11396 172036 383
64743 631627 509
58789 510218 449
58557 21590 340
39692 37650 275
23687 246499 443
26919 935364 525
5463 966244 525
61405 704559 509
10498 101544 351
15437 374591 443
33051 931129 525
70330 456073 449
52867 541898 470
85322 369984 443
57368 364226 443
19056 185279 383
34091 533950 470
14516 950253 525
50957 17056 324
91428 98998 333
31581 85018 351
32842 40594 324
37208 524258 470
24714 549054 470
95978 455723 449
42722 190820 383
815 726892 509
52747 299383 443
56331 385263 443
94951 857273 525
90538 848692 525
43048 843200 525
48414 441549 449
62129 210161 383
84738 69026 351
70717 828206 509
65267 830963 509
6534 858842 525
99014 430895 449
8145 407729 443
32717 790966 509
98859 814414 509
1650 920002 525
98458 593738 470
59264 153101 375
8389 424679 449
88527 751806 509
19258 664211 509
28884 87142 351
898 791341 509
40381 678113 509
41264 352151 443
53650 438870 449
88562 752436 509
48284 376487 443
49864 392412 443
41993 429771 449
61072 64824 330
81441 646403 509
21880 674427 509
53153 86978 351
73323 135783 354
93933 368714 443
32245 511560 449
9591 481833 449
82189 542139 470
96849 797061 509
99126 585760 470
58155 921760 525
22100 29707 308
63694 664039 509
28680 380460 443
99141 709287 509
99272 663750 509
24433 723958 509
36505 818978 509
98753 362258 443
91076 630105 509
77000 536159 470
23438 902342 525
24508 669655 509
61720 967312 525
20466 260109 443
62699 317910 443
27226 383071 443
39606 680079 509
53895 947705 525
4510 900532 525
37496 860065 525
93313 844017 525
13790 816650 509
65511 636247 509
25679 719599 509
99940 331324 443
54505 973776 525
66680 830597 509
84058 772359 509
52710 70866 335
25055 198252 383
92994 216154 383
87629 470498 449
36227 781779 509
14338 290020 443
48524 251758 443
92267 320781 443
81396 273567 443
31184 8085 308
3951 558424 470
34250 405250 443
77024 762096 509
42692 13579 324
16144 161663 383
1492 678797 509
23272 334881 443
94332 9925 351
47854 384379 443
95856 647341 509
46711 426551 449
93302 789620 509
16012 338155 443
92546 301664 443
13427 740459 509
47098 463859 449
36932 822697 509
99374 42985 351
48825 841838 525
1771 968162 525
41707 607355 470
57932 361622 443
34513 273949 443
27302 566652 470
97277 149568 375
52729 316533 443
54770 879796 525
10106 663131 509
83579 301725 443
63536 873527 525
71934 714116 509
1544 382315 443
89758 168188 383
32733 492143 449
94051 718031 509
48696 645054 509
10599 773381 509
46164 604259 470
70680 745738 509
77486 261562 443
37718 995847 525
19357 648459 509
64502 582700 470
67247 219924 386
93010 2082 351
71177 556588 470
48058 568654 470
95133 182695 383
50877 344119 443
40364 387038 443
49496 222816 386
45628 205270 383
16741 879487 525
43149 921174 525
33677 475695 449
24535 686581 509
94171 69800 351
8391 421346 449
90919 675502 509
5469 690098 509
32099 198 308
25721 654942 509
78387 210192 383
39090 7454 324
65567 144021 375
18949 468286 449
32156 251925 443
81412 931521 525
60097 926338 525
4207 919043 525
91806 283346 443
52139 508473 449
9728 624055 470
5366 688672 509
64167 957299 525
86625 50925 351
13635 494847 449
14777 690146 509
68168 33244 340
45312 807842 509
87327 681047 509
83463 292982 443
63108 372743 443
95425 92050 328
58577 349578 443
3175 77982 351
66987 599544 470
47091 453490 449
85644 781487 509
33210 960349 525
81392 667882 509
71988 922813 525
24865 740877 509
80821 133514 354
56795 308532 443
48181 203324 383
42717 772841 509
80321 469874 449
71775 445263 449
69298 287472 443
44620 364228 443
97439 192620 383
22947 511614 449
58265 198245 383
35201 821768 509
2559 397170 443
34939 528887 470
40487 446836 449
35249 702164 509
81938 626962 509