555295 998087 525
968896 674563 525
108474 346190 443
891196 154602 525
58141 917788 525
945488 933928 507
567294 768467 509
391030 711099 509
281192 189550 443
294441 24538 443
140532 47796 354
615926 399677 470
520107 65538 470
591273 526413 452
612368 294316 470
70764 795758 509
595215 6663 470
726973 623075 509
336715 81013 443
188478 865286 525
751919 118805 509
357809 433652 449
607676 915043 525
571049 480500 470
143248 776491 509
412674 43537 449
966411 713890 525
230750 201177 443
434695 541237 470
653964 667166 442
351421 632742 509
549946 661133 509
846827 177773 525
283766 756802 509
264020 669230 509
343540 283827 389
213590 913940 525
533940 701979 509
826677 919484 525
829450 291519 509
942137 166523 525
764915 165958 509
75242 549797 470
660034 745472 504
701877 943735 525
700230 935753 525
965331 501196 525
950604 412004 525
430177 767015 509
973079 484103 525
851053 466647 525
899057 112050 525
590504 870645 525
810135 52176 509
899973 451878 525
85462 231076 443
544518 199074 470
665058 714533 504
339370 90945 443
409951 754741 509
191016 279771 443
411532 198670 449
483689 533518 470
644116 577080 509
878338 577140 525
902539 235150 525
413113 401803 449
444556 152248 449
895089 365779 525
886302 811482 525
592533 616252 447
722671 729087 380
258625 892350 525
424542 901191 525
3747 761754 509
651571 337346 509
242276 618260 470
835937 366533 509
103568 985450 525
234287 938586 525
684234 629814 442
782987 205676 509
305002 625152 470
898881 7439 525
908331 254501 525
233839 638929 509
423708 306441 449
552843 668306 509
996725 887966 507
171287 234172 443
275717 164401 443
760989 821527 468
243931 997798 525
172175 171012 334
327414 878915 525
839924 660468 525
976079 953036 458
31366 479344 449
828449 786428 468
546505 574881 452
724033 212917 509
310667 431814 449
486983 402470 449
984084 871828 507
390308 738708 509
728155 247712 509
286321 875157 525
920517 562732 525
759118 502941 509
124608 432492 449
681345 353977 509
619747 841399 525
403561 477372 449
681408 600964 509
136567 122680 344
610919 819735 509
500783 178361 449
216262 666332 509
278176 747609 509
661273 772052 504
805386 475231 509
563126 16924 470
148168 316380 443
387124 881338 525
972537 340198 525
616149 123068 470
133503 230528 386
483598 975976 525
888091 346256 525
595027 822422 509
979420 305046 525
482655 548050 470
691201 376356 509
875747 117489 525
794765 409996 509
409305 996887 525
289361 241258 407
280491 299950 389
502927 833860 509
453562 870277 525
638101 617110 509
413852 265440 449
729657 704796 411
498970 281333 449
44768 114019 354
211995 364015 443
138761 251952 443
832698 322378 509
990883 606636 525
185167 480937 449
742020 611651 509
479702 757668 509
354177 538725 470
233274 375361 441
329637 697384 509
221142 368350 443
782476 51679 509
385349 668188 509
845667 992629 507
452686 279070 449
42797 688362 509
987921 704108 525
884235 285676 525
375723 775829 509
357027 623876 470
39951 501738 449
595093 143802 470
415824 313865 449
646723 670461 442
756089 63419 509
56600 267438 443
168911 393679 443
145200 977693 525
366743 939427 525
709357 999845 525
986663 796520 525
818053 789898 468
713750 304152 509
896813 378723 525
615906 881448 525
120217 658646 509
805866 448689 509
515132 832632 509
349166 912751 525
216494 607890 470
765711 139341 509
879160 513682 525
847659 901780 445
298082 985104 525
643694 304385 509
823061 757139 468
916790 889691 476
899922 641796 525
257790 321954 407
215643 349049 443
368718 436817 449
480946 317060 449
788514 72293 509
499004 82215 449
950710 370561 525
486903 394747 449
513446 701470 509
881423 472502 525
863558 665698 525
945529 718299 525
318871 810772 509
494855 128024 449
129632 715102 509
976172 864232 507
296529 996965 525
183996 50499 383
505955 298801 449
154336 241000 443
694476 852671 525
661812 944667 525
511906 651352 509
101516 277145 443
785150 843840 525
430844 513963 470
261685 321832 407
935696 787435 525
534694 212962 470
915951 458283 525
524813 699280 509
909491 793332 525
121054 785185 509
406606 448328 449
326512 198517 443
164894 142927 383
73505 135209 354
391280 168284 443
930475 322370 525
659421 761313 504
887778 687854 525
132680 377715 443
547823 333103 470
962968 25762 525
658170 393992 509
914586 841459 476
57238 833279 509
148748 951717 525
117299 967113 525
861333 962271 507
864267 604534 525
549771 933726 525
99240 673362 509
570796 844 470
818336 672997 504
85058 495091 449
478266 668936 509
